government = orcish_horde
government_rank = 1
primary_culture = green_orc
religion = great_dookan
technology_group = tech_orcish
capital = 860

1444.11.11 = {
	monarch = {
		name = "Varok"
		dynasty = "Bladebreaker"
		birth_date = 1401.3.25
		adm = 4
		dip = 3
		mil = 6
	}
}